{
    "dataRoles": [
        {
            "displayName": "Catégories",
            "name": "category",
            "kind": "Grouping"
        },
        {
            "displayName": "Légende",
            "name": "label",
            "kind": "GroupingOrMeasure"
        },
        {
            "displayName": "Seuil",
            "name": "treshold",
            "kind": "GroupingOrMeasure"
        },
        
        {
            "displayName": "Measure",
            "name": "measure",
            "kind": "Measure"
        }
    ],
    "objects": {
        "plotTitle": {
        "displayName": "Affichage Titre",
        "displayNameKey": "plot_title",
        "properties": {
            "showTitle": {
                "displayName": "Afficher Titre",
                "type": {
                    "bool": true
                }
            }
        }
    },        "legend": {
        "displayName": "Affichage Légende",
        "displayNameKey": "plot_legend",
        "properties": {
            "showLegend": {
                "displayName": "Afficher Légende",
                "type": {
                    "bool": true
                }
            }
        }
    }, "modeBar": {
        "displayName": "Barre d'Options",
        "displayNameKey": "mode_show",
        "properties": {
            "showBar": {
                "displayName": "Afficher Barre d'options",
                "type": {
                    "bool": true
                }
            },
            "optionLabel": {
                "displayName": "Texte Bouton Déplacer",
                "type": {
                    "text": true
                }
            },            
            "options": {
                "displayName": "Options à afficher",
                "type": {
                    "text": true
                }
            }
        }
    }, 
      "tresholds": {
        "displayName": "Seuils",
        "displayNameKey": "tresholds",
        "properties": {
            "width": {
                "displayName": "Largeur ligne",
                "type": {
                    "numeric": true
                }
            },
            "fillTreshold1": {
                "displayName": "Seuil 1",
                "type": {
                    "fill": {
                        "solid": {
                            "color": true
                        }
                    }
                }
            },
            "fillTreshold2": {
                "displayName": "Seuil 2",
                "type": {
                    "fill": {
                        "solid": {
                            "color": true
                        }
                    }
                }
            }
            ,
            "fillTreshold3": {
                "displayName": "Seuil 3",
                "type": {
                    "fill": {
                        "solid": {
                            "color": true
                        }
                    }
                }
            }
            ,
            "fillTreshold4": {
                "displayName": "Seuil 4",
                "type": {
                    "fill": {
                        "solid": {
                            "color": true
                        }
                    }
                }
            }                                    
        }
    },
    "margins": {
        "displayName": "Marges",
        "displayNameKey": "margins",
        "properties": {
            "top": {
                "displayName": "Haut",
                "type": {
                    "numeric": true
                }
            },
            "bottom": {
                "displayName": "Bas",
                "type": {
                    "numeric": true
                }
            },
            "right": {
                "displayName": "Droite",
                "type": {
                    "numeric": true
                }
            },
            "left": {
                "displayName": "Gauche",
                "type": {
                    "numeric": true
                }
            }
        }
    },
        "barFormat": {
            "displayName": "Formattage Barres",
            "properties": {
                "fillColor": {
                    "displayName": "Couleur",
                    "type": {
                        "fill": {
                            "solid": {
                                "color": true
                            }
                        }
                    }
                },
                "showAllDataPoints": {
                    "displayName": "Show all",
                    "type": {
                        "bool": true
                    }
                },
                "fill": {
                    "displayName": "Fill",
                    "type": {
                        "fill": {
                            "solid": {
                                "color": true
                            }
                        }
                    }
                },
                "fillRule": {
                    "displayName": "Color saturation",
                    "type": {
                        "fill": {}
                    }
                },
                 "fontSize": {
                    "displayName": "Text Size",
                    "type": {
                        "formatting": {
                            "fontSize": true
                        }
                    }
                }
            }
        }
    },
    "dataViewMappings": [
        {
            "table": {
                "rows": {
                    "select": [
                        {
                            "for": {
                                "in": "category"
                            }
                        },  {
                            "for": {
                                "in": "label"
                            }
                        },
                        {
                            "for": {
                                "in": "treshold"
                            }
                        },
                        {
                            "for": {
                                "in": "measure"
                            }
                        }
                    ],  "dataReductionAlgorithm": {
                        "top": {}
                    }
                }
            }
        }
    ]
}
